collapseFisheries,PSCFisheries,collapseFisheriesnum,PSCFisheriesnum
1 AK W/S T,1 AK WIN1 S/O T,1,1
1 AK W/S T,2 AK WIN1 N/O T,1,2
1 AK W/S T,3 AK WIN1 S/I T,1,3
1 AK W/S T,4 AK WIN1 N/I T,1,4
1 AK W/S T,5 AK WIN2 S/O T,1,5
1 AK W/S T,6 AK WIN2 N/O T,1,6
1 AK W/S T,7 AK WIN2 S/I T,1,7
1 AK W/S T,8 AK WIN2 N/I T,1,8
1 AK W/S T,9 AK SPR S/O T,1,9
1 AK W/S T,10 AK SPR N/O T,1,10
1 AK W/S T,11 AK SPR S/I T,1,11
1 AK W/S T,12 AK SPR N/I T,1,12
2 AK JNO T,13 AK JUNE S/O T,2,13
2 AK JNO T,14 AK JUNE N/O T,2,14
3 AK JNI T,15 AK JUNE S/I T,3,15
3 AK JNI T,16 AK JUNE N/I T,3,16
4 AK JLO T,17 AK JULY S/O T,4,17
4 AK JLO T,18 AK JULY N/O T,4,18
5 AK JLI T,19 AK JULY S/I T,5,19
5 AK JLI T,20 AK JULY N/I T,5,20
6 AK FALL T,21 AK FALL S/O T,6,21
6 AK FALL T,22 AK FALL N/O T,6,22
6 AK FALL T,23 AK FALL S/I T,6,23
6 AK FALL T,24 AK FALL N/I T,6,24
6 AK FALL T,189 AK Summer CNR MSF S/O T,6,189
6 AK FALL T,190 AK Summer CNR MSF N/O T,6,190
6 AK FALL T,191 AK Summer CNR MSF S/I T,6,191
6 AK FALL T,192 AK Summer CNR MSF N/I T,6,192
7 TAK TERM T,25 AK NEAR TER T,7,25
7 TAK TERM T,26 AK TERMIN T,7,26
8 NORTH T,27 NBC FALL T,8,27
8 NORTH T,28 NBC WIN T,8,28
8 NORTH T,29 NBC SPR T,8,29
8 NORTH T,30 NBC SUM T,8,30
9 CENTRL T,31 CENTR T,9,31
10 WCVI F/W T,32 NWVI FALL T,10,32
10 WCVI F/W T,33 NWVI WIN T,10,33
10 WCVI F/W T,36 SWVI FALL T,10,36
10 WCVI F/W T,37 SWVI WIN T,10,37
11 WCVI SPR T,34 NWVI SPR T,11,34
11 WCVI SPR T,38 SWVI SPR T,11,38
12 WCVI SUM T,35 NWVI SUM T,12,35
12 WCVI SUM T,39 SWVI SUM T,12,39
13 N FALCON T,41 WA JDF T,13,41
13 N FALCON T,42 WA 4 T,13,42
13 N FALCON T,43 WA 4 T T,13,43
13 N FALCON T,44 WA 3 T,13,44
13 N FALCON T,45 WA 3 T T,13,45
13 N FALCON T,46 WA 2 T,13,46
13 N FALCON T,47 WA 2 T T,13,47
13 N FALCON T,48 WA 1 T,13,48
14 S FALCON T,49 OR3 T,14,49
14 S FALCON T,50 OR4 T,14,50
14 S FALCON T,51 OR5 T,14,51
14 S FALCON T,52 OR6 T,14,52
14 S FALCON T,54 CAL T,14,54
15 TOR TERM T,53 TORC T,15,53
16 GEO ST T,40 GEO ST T,16,40
17 ALASKA N,55 AK 101&102 GN,17,55
17 ALASKA N,56 AK 106&108 GN,17,56
17 ALASKA N,57 AK 111 GN,17,57
17 ALASKA N,58 AK 115 GN,17,58
17 ALASKA N,59 AK SEOT GN,17,59
17 ALASKA N,63 AK SE SN,17,63
17 ALASKA N,64 AK SASI SN,17,64
17 ALASKA N,65 AK SASO SN,17,65
17 ALASKA N,66 AK SACI SN,17,66
17 ALASKA N,67 AK SACO SN,17,67
17 ALASKA N,68 AK 111 SN,17,68
17 ALASKA N,69 AK 112 SN,17,69
17 ALASKA N,70 AK 113 SN,17,70
17 ALASKA N,71 AK 114 SN,17,71
17 ALASKA N,73 AK TRAP,17,73
18 NORTH N,74 NORTH N,18,74
19 TNBC TERM N,75 TNORTH N,19,75
20 CENTRL N,77 CENTR N,20,77
21 TCBC TERM N,78 TCENTRAL N,21,78
22 TWCVI TERM N,84 TNWVI N,22,84
22 TWCVI TERM N,86 TSWVI N,22,86
23 WCVI N,83 NWVI N,23,83
23 WCVI N,85 SWVI N,23,85
24 GEO ST N,81 GEO ST N,24,81
25 PGSDN N,95 PS SJ N,25,95
25 PGSDN N,97 PG SD 7 N,25,97
25 PGSDN N,98 PG SD 7A N,25,98
25 PGSDN N,99 PS NK/SM N,25,99
26 TPGSDN TERM N,96 TPS SJ N,26,96
26 TPGSDN TERM N,100 TPS NK/SM N,26,100
27 US JF N,93 WA JDF N,27,93
28 PGSDO N,102 PS SKG N,28,102
28 PGSDO N,105 PS 6B-9 N,28,105
28 PGSDO N,107 PS ST/SN N,28,107
28 PGSDO N,109 PS 10-11-13 N,28,109
28 PGSDO N,112 PS HC N,28,112
29 TPGSDO TERM N,103 TPS SKG N,29,103
29 TPGSDO TERM N,106 TPS 6B-9 N,29,106
29 TPGSDO TERM N,108 TPS ST/SN N,29,108
29 TPGSDO TERM N,110 TPS 10-11-13 N,29,110
29 TPGSDO TERM N,113 TPS HC N,29,113
30 WA CST N,115 WAC N,30,115
30 WA CST N,117 WA GH N,30,117
30 WA CST N,119 WA WB N,30,119
31 TCOL R N,120 TCOL R1-5 GN,31,120
31 TCOL R N,121 TCOL R1-5 SN,31,121
31 TCOL R N,122 TCOL SA N,31,122
31 TCOL R N,123 TCOL R6 N,31,123
32 TAK TERM N,62 TSEAK GN,32,62
32 TAK TERM N,72 TSEAK SN,32,72
33 TBR TERM N,60 TTAKU GN,33,60
33 TBR TERM N,61 TSTIKINE GN,33,61
34 TNORTH FN,76 TNORTH FN,34,76
35 TCENTRAL FN,79 TCENTRAL FN,35,79
36 TGEO ST FN,82 TGEO ST FN,36,82
37 TFRAS FN,89 TLFRASER FN,37,89
37 TFRAS FN,90 TUFRASER FN,37,90
38 TPS FN,94 TWA JDF FN,38,94
38 TPS FN,101 TNPS FN,38,101
38 TPS FN,104 TPS SKG FN,38,104
38 TPS FN,111 TPS 10-11-13 FN,38,111
38 TPS FN,114 TPS HC FN,38,114
39 TWAC FN,116 TWA NCST FN,39,116
39 TWAC FN,118 TWA GH FN,39,118
40 JNST N,80 JOHN ST N,40,80
41 BC JF N,91 BC JDF N,41,91
42 FRASER N,87 FRASER N,42,87
43 TFRASER TERM N,88 TFRASER N,43,88
44 ALASKA S,124 AK SE S,44,124
45 CBC S,132 CENTRAL S,45,132
46 TCBC TERM S,133 TCENTRAL S,46,133
47 NBC AABM S,128 NORTH AABM S,47,128
48 NBC ISBM S,129 NORTH ISBM S,48,129
49 TNBC TERM S,130 TNORTH S,49,130
50 WCVI AABM S,142 WCVI AABM S,50,142
51 WCVI ISBM S,92 WCVI ISBM S,51,92
52 TWCVI TERM S,143 TWCVI S,52,143
53 N FALCON S,167 WAOCN4 S,53,167
53 N FALCON S,168 WAOCN3 S,53,168
53 N FALCON S,169 WAOCN2 S,53,169
53 N FALCON S,170 WAOCN1 S,53,170
53 N FALCON S,172 BUOY 10 S,53,172
54 TNF TERM S,171 TWAC S,54,171
55 S FALCON S,175 OROCN3 S,55,175
55 S FALCON S,176 OROCN4 S,55,176
55 S FALCON S,177 OROCN5 S,55,177
55 S FALCON S,178 OROCN6 S,55,178
55 S FALCON S,181 CAL OCN S,55,181
56 TSF TERM S,179 TORC S,56,179
57 PGSDN S,150 PS 5 S,57,150
57 PGSDN S,151 PS 6 S,57,151
57 PGSDN S,152 PS 7 S,57,152
58 TPGSDN TERM S,153 TNPS S,58,153
59 PGSDO S,155 PS 8-1 S,59,155
59 PGSDO S,156 PS 8-2 S,59,156
59 PGSDO S,157 PS 9 S,59,157
59 PGSDO S,159 PS 10 S,59,159
59 PGSDO S,160 PS 11 S,59,160
59 PGSDO S,161 PS 12 S,59,161
59 PGSDO S,164 PS 13 S,59,164
60 TPGSDO TERM S,162 TPS 12 S,60,162
60 TPGSDO TERM S,165 TSPS S,60,165
61 JNST S,135 JOHN ST S,61,135
62 TJNST TERM S,148 TJOHN ST S,62,148
63 GEO ST S,136 NGS S,63,136
63 GEO ST S,139 SGS S,63,139
64 TGEO ST TERM S,137 TNGS S,64,137
64 TGEO ST TERM S,140 TSGS S,64,140
65 BC JF S,146 BC JDF S,65,146
66 TBC JF TERM S,147 TBC JDF S,66,147
67 TCOL R S,173 TBUOY 10 S,67,173
67 TCOL R S,174 TCOL R S,67,174
68 TAK TERM S,127 TAK SE S,68,127
69 TBR TERM S,125 TTAKU S,69,125
69 TBR TERM S,126 TSTIKINE S,69,126
70 TNORTH FS,131 TNORTH FS,70,131
71 TCENTRAL FS,134 TCENTRAL FS,71,134
72 TWCVI FS,144 TWCVI FS,72,144
73 TFRASER FS,145 TFRASER FS,73,145
74 TGS FS,138 TNGS FS,74,138
74 TGS FS,141 TSGS FS,74,141
75 TPS FS,149 TWA JDF FS,75,149
75 TPS FS,154 TNPS FS,75,154
75 TPS FS,158 TPS 8-9 FS,75,158
75 TPS FS,163 TPS 12 FS,75,163
75 TPS FS,166 TSPS FS,75,166
76 TSF TERM FS,180 TORC FS,76,180
77 TCAN TBR N,185 TBC TAK FN,77,185
77 TCAN TBR N,186 TBC TAK FS,77,186
77 TCAN TBR N,187 TBC STI FN,77,187
77 TCAN TBR N,188 TBC STI FS,77,188
78 XCA ESC STRAY,193 CA ESC STRAY,78,193
79 XUS ESC STRAY,194 US ESC STRAY,79,194
80 ESCAPEMENT,182 COST REC,80,182
80 ESCAPEMENT,183 PERS USE,80,183
80 ESCAPEMENT,184 SUB,80,184
80 ESCAPEMENT,195 ESCAPEMENT,80,195
